{
  "type": "FeatureCollection", 
  "features": [
    {
      "geometry": {
        "type": "Point", 
        "coordinates": [
          -104.959055, 
          40.622815
        ]
      }, 
      "type": "Feature", 
      "properties": {
        "Station Name": "Fort Collins - East", 
        "Longitude": -104.959055, 
        "Irrigation Type": null, 
        "First Obs.": "1986-01-01", 
        "gid": 1, 
        "Elev (ft)": 5156, 
        "Location": "Fort Collins - East", 
        "Station Type": "ncwcd", 
        "Latitude": 40.622815, 
        "ID": "101", 
        "Last Obs.": null, 
        "__gid": 2
      }
    }, 
    {
      "geometry": {
        "type": "Point", 
        "coordinates": [
          -105.068977, 
          40.429163
        ]
      }, 
      "type": "Feature", 
      "properties": {
        "Station Name": "Loveland", 
        "Longitude": -105.068977, 
        "Irrigation Type": null, 
        "First Obs.": "1982-01-01", 
        "gid": 2, 
        "Elev (ft)": 4992, 
        "Location": "Loveland", 
        "Station Type": "ncwcd", 
        "Latitude": 40.429163, 
        "ID": "102", 
        "Last Obs.": null, 
        "__gid": 4
      }
    }, 
    {
      "geometry": {
        "type": "Point", 
        "coordinates": [
          -105.076877, 
          40.074432
        ]
      }, 
      "type": "Feature", 
      "properties": {
        "Station Name": "Longmont - South", 
        "Longitude": -105.076877, 
        "Irrigation Type": null, 
        "First Obs.": "1987-01-01", 
        "gid": 3, 
        "Elev (ft)": 4984, 
        "Location": "Longmont - South", 
        "Station Type": "ncwcd", 
        "Latitude": 40.074432, 
        "ID": "103", 
        "Last Obs.": null, 
        "__gid": 6
      }
    }, 
    {
      "geometry": {
        "type": "Point", 
        "coordinates": [
          -104.77039, 
          40.576438
        ]
      }, 
      "type": "Feature", 
      "properties": {
        "Station Name": "Eaton", 
        "Longitude": -104.77039, 
        "Irrigation Type": null, 
        "First Obs.": "1993-01-01", 
        "gid": 4, 
        "Elev (ft)": 4955, 
        "Location": "Eaton", 
        "Station Type": "ncwcd", 
        "Latitude": 40.576438, 
        "ID": "104", 
        "Last Obs.": null, 
        "__gid": 8
      }
    }, 
    {
      "geometry": {
        "type": "Point", 
        "coordinates": [
          -104.841856, 
          40.262958
        ]
      }, 
      "type": "Feature", 
      "properties": {
        "Station Name": "Gilcrest", 
        "Longitude": -104.841856, 
        "Irrigation Type": null, 
        "First Obs.": "1993-01-01", 
        "gid": 5, 
        "Elev (ft)": 4775, 
        "Location": "Gilcrest", 
        "Station Type": "ncwcd", 
        "Latitude": 40.262958, 
        "ID": "105", 
        "Last Obs.": null, 
        "__gid": 10
      }
    }, 
    {
      "geometry": {
        "type": "Point", 
        "coordinates": [
          -104.014972, 
          40.303266
        ]
      }, 
      "type": "Feature", 
      "properties": {
        "Station Name": "Wiggins", 
        "Longitude": -104.014972, 
        "Irrigation Type": null, 
        "First Obs.": "1989-01-01", 
        "gid": 6, 
        "Elev (ft)": 4471, 
        "Location": "Wiggins", 
        "Station Type": "ncwcd", 
        "Latitude": 40.303266, 
        "ID": "106", 
        "Last Obs.": null, 
        "__gid": 12
      }
    }, 
    {
      "geometry": {
        "type": "Point", 
        "coordinates": [
          -103.695246, 
          40.23596
        ]
      }, 
      "type": "Feature", 
      "properties": {
        "Station Name": "Brush", 
        "Longitude": -103.695246, 
        "Irrigation Type": null, 
        "First Obs.": "1987-01-01", 
        "gid": 7, 
        "Elev (ft)": 4278, 
        "Location": "Brush", 
        "Station Type": "ncwcd", 
        "Latitude": 40.23596, 
        "ID": "107", 
        "Last Obs.": null, 
        "__gid": 14
      }
    }, 
    {
      "geometry": {
        "type": "Point", 
        "coordinates": [
          -103.237021, 
          40.576888
        ]
      }, 
      "type": "Feature", 
      "properties": {
        "Station Name": "Sterling", 
        "Longitude": -103.237021, 
        "Irrigation Type": null, 
        "First Obs.": "1987-01-01", 
        "gid": 8, 
        "Elev (ft)": 3970, 
        "Location": "Sterling", 
        "Station Type": "ncwcd", 
        "Latitude": 40.576888, 
        "ID": "108", 
        "Last Obs.": null, 
        "__gid": 16
      }
    }, 
    {
      "geometry": {
        "type": "Point", 
        "coordinates": [
          -102.884686, 
          40.841257
        ]
      }, 
      "type": "Feature", 
      "properties": {
        "Station Name": "Crook", 
        "Longitude": -102.884686, 
        "Irrigation Type": null, 
        "First Obs.": "1986-01-01", 
        "gid": 9, 
        "Elev (ft)": 3750, 
        "Location": "Crook", 
        "Station Type": "ncwcd", 
        "Latitude": 40.841257, 
        "ID": "109", 
        "Last Obs.": null, 
        "__gid": 18
      }
    }, 
    {
      "geometry": {
        "type": "Point", 
        "coordinates": [
          -102.437792, 
          40.967571
        ]
      }, 
      "type": "Feature", 
      "properties": {
        "Station Name": "Ovid", 
        "Longitude": -102.437792, 
        "Irrigation Type": null, 
        "First Obs.": "1994-01-01", 
        "gid": 10, 
        "Elev (ft)": 3653, 
        "Location": "Ovid", 
        "Station Type": "ncwcd", 
        "Latitude": 40.967571, 
        "ID": "110", 
        "Last Obs.": null, 
        "__gid": 20
      }
    }, 
    {
      "geometry": {
        "type": "Point", 
        "coordinates": [
          -105.033342, 
          40.34831
        ]
      }, 
      "type": "Feature", 
      "properties": {
        "Station Name": "Johnson's Corner", 
        "Longitude": -105.033342, 
        "Irrigation Type": null, 
        "First Obs.": "1994-01-01", 
        "gid": 11, 
        "Elev (ft)": 5071, 
        "Location": "Johnson's Corner", 
        "Station Type": "ncwcd", 
        "Latitude": 40.34831, 
        "ID": "111", 
        "Last Obs.": null, 
        "__gid": 22
      }
    }, 
    {
      "geometry": {
        "type": "Point", 
        "coordinates": [
          -105.077443, 
          40.322242
        ]
      }, 
      "type": "Feature", 
      "properties": {
        "Station Name": "Berthoud", 
        "Longitude": -105.077443, 
        "Irrigation Type": null, 
        "First Obs.": "2004-01-01", 
        "gid": 12, 
        "Elev (ft)": 5066, 
        "Location": "Berthoud", 
        "Station Type": "ncwcd", 
        "Latitude": 40.322242, 
        "ID": "220", 
        "Last Obs.": null, 
        "__gid": 24
      }
    }, 
    {
      "geometry": {
        "type": "Point", 
        "coordinates": [
          -103.826628, 
          40.293923
        ]
      }, 
      "type": "Feature", 
      "properties": {
        "Station Name": "Fort Morgan", 
        "Longitude": -103.826628, 
        "Irrigation Type": null, 
        "First Obs.": "2002-01-01", 
        "gid": 13, 
        "Elev (ft)": 4438, 
        "Location": "Fort Morgan", 
        "Station Type": "ncwcd", 
        "Latitude": 40.293923, 
        "ID": "222", 
        "Last Obs.": null, 
        "__gid": 26
      }
    }, 
    {
      "geometry": {
        "type": "Point", 
        "coordinates": [
          -104.757217, 
          40.404103
        ]
      }, 
      "type": "Feature", 
      "properties": {
        "Station Name": "Greeley - West", 
        "Longitude": -104.757217, 
        "Irrigation Type": null, 
        "First Obs.": "1989-01-01", 
        "gid": 14, 
        "Elev (ft)": 4868, 
        "Location": "Greeley - West", 
        "Station Type": "ncwcd", 
        "Latitude": 40.404103, 
        "ID": "224", 
        "Last Obs.": null, 
        "__gid": 28
      }
    }, 
    {
      "geometry": {
        "type": "Point", 
        "coordinates": [
          -104.794348, 
          40.074571
        ]
      }, 
      "type": "Feature", 
      "properties": {
        "Station Name": "Fort Lupton", 
        "Longitude": -104.794348, 
        "Irrigation Type": null, 
        "First Obs.": "2006-01-01", 
        "gid": 15, 
        "Elev (ft)": 4935, 
        "Location": "Fort Lupton", 
        "Station Type": "ncwcd", 
        "Latitude": 40.074571, 
        "ID": "225", 
        "Last Obs.": null, 
        "__gid": 30
      }
    }, 
    {
      "geometry": {
        "type": "Point", 
        "coordinates": [
          -105.122937, 
          40.168089
        ]
      }, 
      "type": "Feature", 
      "properties": {
        "Station Name": "Longmont - West", 
        "Longitude": -105.122937, 
        "Irrigation Type": null, 
        "First Obs.": "1997-01-01", 
        "gid": 16, 
        "Elev (ft)": 5062, 
        "Location": "Longmont - West", 
        "Station Type": "ncwcd", 
        "Latitude": 40.168089, 
        "ID": "226", 
        "Last Obs.": null, 
        "__gid": 32
      }
    }, 
    {
      "geometry": {
        "type": "Point", 
        "coordinates": [
          -105.106075, 
          40.5651
        ]
      }, 
      "type": "Feature", 
      "properties": {
        "Station Name": "Fort Collins - Central", 
        "Longitude": -105.106075, 
        "Irrigation Type": null, 
        "First Obs.": "2002-01-01", 
        "gid": 17, 
        "Elev (ft)": 5039, 
        "Location": "Fort Collins - Central", 
        "Station Type": "ncwcd", 
        "Latitude": 40.5651, 
        "ID": "228", 
        "Last Obs.": null, 
        "__gid": 34
      }
    }, 
    {
      "geometry": {
        "type": "Point", 
        "coordinates": [
          -105.260894, 
          39.978689
        ]
      }, 
      "type": "Feature", 
      "properties": {
        "Station Name": "Boulder - Southwest", 
        "Longitude": -105.260894, 
        "Irrigation Type": null, 
        "First Obs.": "2002-01-01", 
        "gid": 18, 
        "Elev (ft)": 5564, 
        "Location": "Boulder - Southwest", 
        "Station Type": "ncwcd", 
        "Latitude": 39.978689, 
        "ID": "230", 
        "Last Obs.": null, 
        "__gid": 36
      }
    }, 
    {
      "geometry": {
        "type": "Point", 
        "coordinates": [
          -105.276075, 
          40.052288
        ]
      }, 
      "type": "Feature", 
      "properties": {
        "Station Name": "Boulder - Northwest", 
        "Longitude": -105.276075, 
        "Irrigation Type": null, 
        "First Obs.": "2000-01-01", 
        "gid": 19, 
        "Elev (ft)": 5476, 
        "Location": "Boulder - Northwest", 
        "Station Type": "ncwcd", 
        "Latitude": 40.052288, 
        "ID": "233", 
        "Last Obs.": null, 
        "__gid": 37
      }
    }, 
    {
      "geometry": {
        "type": "Point", 
        "coordinates": [
          -105.966003, 
          40.107619
        ]
      }, 
      "type": "Feature", 
      "properties": {
        "Station Name": "Windy Gap", 
        "Longitude": -105.966003, 
        "Irrigation Type": null, 
        "First Obs.": "1998-01-01", 
        "gid": 20, 
        "Elev (ft)": 7929, 
        "Location": "Windy Gap", 
        "Station Type": "ncwcd", 
        "Latitude": 40.107619, 
        "ID": "350", 
        "Last Obs.": null, 
        "__gid": 39
      }
    }, 
    {
      "geometry": {
        "type": "Point", 
        "coordinates": [
          -105.841509, 
          40.207361
        ]
      }, 
      "type": "Feature", 
      "properties": {
        "Station Name": "Shadow Mountain", 
        "Longitude": -105.841509, 
        "Irrigation Type": null, 
        "First Obs.": "2011-01-01", 
        "gid": 21, 
        "Elev (ft)": 8383, 
        "Location": "Shadow Mountain", 
        "Station Type": "ncwcd", 
        "Latitude": 40.207361, 
        "ID": "352", 
        "Last Obs.": null, 
        "__gid": 41
      }
    }, 
    {
      "geometry": {
        "type": "Point", 
        "coordinates": [
          -104.72, 
          40.569
        ]
      }, 
      "type": "Feature", 
      "properties": {
        "Station Name": "Ault", 
        "Longitude": -104.72, 
        "Irrigation Type": "Fully Irrigated", 
        "First Obs.": null, 
        "gid": 22, 
        "Elev (ft)": 4910, 
        "Location": "1 mi SE Ault", 
        "Station Type": "Coagmet", 
        "Latitude": 40.569, 
        "ID": "ALT01", 
        "Last Obs.": null, 
        "__gid": null
      }
    }, 
    {
      "geometry": {
        "type": "Point", 
        "coordinates": [
          -104.329, 
          38.2056
        ]
      }, 
      "type": "Feature", 
      "properties": {
        "Station Name": "Avondale", 
        "Longitude": -104.329, 
        "Irrigation Type": "Fully Irrigated", 
        "First Obs.": null, 
        "gid": 23, 
        "Elev (ft)": 4630, 
        "Location": "1 mi SE Avondale", 
        "Station Type": "Coagmet", 
        "Latitude": 38.2056, 
        "ID": "AVN01", 
        "Last Obs.": null, 
        "__gid": null
      }
    }, 
    {
      "geometry": {
        "type": "Point", 
        "coordinates": [
          -105.557, 
          37.3905
        ]
      }, 
      "type": "Feature", 
      "properties": {
        "Station Name": "Blanca", 
        "Longitude": -105.557, 
        "Irrigation Type": "Dry land", 
        "First Obs.": null, 
        "gid": 24, 
        "Elev (ft)": 7755, 
        "Location": "8 mi SW Blanca", 
        "Station Type": "Coagmet", 
        "Latitude": 37.3905, 
        "ID": "BLA01", 
        "Last Obs.": null, 
        "__gid": null
      }
    }, 
    {
      "geometry": {
        "type": "Point", 
        "coordinates": [
          -106.129, 
          38.8315
        ]
      }, 
      "type": "Feature", 
      "properties": {
        "Station Name": "Buena Vista", 
        "Longitude": -106.129, 
        "Irrigation Type": "Partial Irrigation", 
        "First Obs.": null, 
        "gid": 25, 
        "Elev (ft)": 7900, 
        "Location": "CDW Area SW of Buena Vista", 
        "Station Type": "Coagmet", 
        "Latitude": 38.8315, 
        "ID": "BNV01", 
        "Last Obs.": null, 
        "__gid": null
      }
    }, 
    {
      "geometry": {
        "type": "Point", 
        "coordinates": [
          -104.319, 
          40.5947
        ]
      }, 
      "type": "Feature", 
      "properties": {
        "Station Name": "Briggsdale", 
        "Longitude": -104.319, 
        "Irrigation Type": "Dry land", 
        "First Obs.": null, 
        "gid": 26, 
        "Elev (ft)": 4858, 
        "Location": "3 mi S Briggsdale", 
        "Station Type": "Coagmet", 
        "Latitude": 40.5947, 
        "ID": "BRG01", 
        "Last Obs.": null, 
        "__gid": null
      }
    }, 
    {
      "geometry": {
        "type": "Point", 
        "coordinates": [
          -102.074, 
          39.4998
        ]
      }, 
      "type": "Feature", 
      "properties": {
        "Station Name": "Burlington North (#1)", 
        "Longitude": -102.074, 
        "Irrigation Type": "Partial Irrigation", 
        "First Obs.": null, 
        "gid": 27, 
        "Elev (ft)": 3900, 
        "Location": "18 mi NNE Burlington", 
        "Station Type": "Coagmet", 
        "Latitude": 39.4998, 
        "ID": "BRL01", 
        "Last Obs.": null, 
        "__gid": null
      }
    }, 
    {
      "geometry": {
        "type": "Point", 
        "coordinates": [
          -102.109, 
          39.2651
        ]
      }, 
      "type": "Feature", 
      "properties": {
        "Station Name": "Burlington South (#2)", 
        "Longitude": -102.109, 
        "Irrigation Type": "Dry land", 
        "First Obs.": null, 
        "gid": 28, 
        "Elev (ft)": 4170, 
        "Location": "6 mi SE Burlington", 
        "Station Type": "Coagmet", 
        "Latitude": 39.2651, 
        "ID": "BRL02", 
        "Last Obs.": null, 
        "__gid": null
      }
    }, 
    {
      "geometry": {
        "type": "Point", 
        "coordinates": [
          -102.196, 
          39.3374
        ]
      }, 
      "type": "Feature", 
      "properties": {
        "Station Name": "Burlington 3", 
        "Longitude": -102.196, 
        "Irrigation Type": "Fully Irrigated", 
        "First Obs.": null, 
        "gid": 29, 
        "Elev (ft)": 4068, 
        "Location": "4 mi NE of Burlington", 
        "Station Type": "Coagmet", 
        "Latitude": 39.3374, 
        "ID": "BRL03", 
        "Last Obs.": null, 
        "__gid": null
      }
    }, 
    {
      "geometry": {
        "type": "Point", 
        "coordinates": [
          -107.208, 
          39.3623
        ]
      }, 
      "type": "Feature", 
      "properties": {
        "Station Name": "Carbondale", 
        "Longitude": -107.208, 
        "Irrigation Type": "Fully Irrigated", 
        "First Obs.": null, 
        "gid": 30, 
        "Elev (ft)": 6293, 
        "Location": "Carbondale", 
        "Station Type": "Coagmet", 
        "Latitude": 39.3623, 
        "ID": "CBL01", 
        "Last Obs.": null, 
        "__gid": null
      }
    }, 
    {
      "geometry": {
        "type": "Point", 
        "coordinates": [
          -107.99, 
          39.1993
        ]
      }, 
      "type": "Feature", 
      "properties": {
        "Station Name": "Collbran", 
        "Longitude": -107.99, 
        "Irrigation Type": "Fully Irrigated", 
        "First Obs.": null, 
        "gid": 31, 
        "Elev (ft)": 6555, 
        "Location": "3 mi SW of Collbran", 
        "Station Type": "Coagmet", 
        "Latitude": 39.1993, 
        "ID": "CBN01", 
        "Last Obs.": null, 
        "__gid": null
      }
    }, 
    {
      "geometry": {
        "type": "Point", 
        "coordinates": [
          -107.932, 
          38.9142
        ]
      }, 
      "type": "Feature", 
      "properties": {
        "Station Name": "Cedaredge", 
        "Longitude": -107.932, 
        "Irrigation Type": "Fully Irrigated", 
        "First Obs.": null, 
        "gid": 32, 
        "Elev (ft)": 6404, 
        "Location": "Cedaredge", 
        "Station Type": "Coagmet", 
        "Latitude": 38.9142, 
        "ID": "CDG01", 
        "Last Obs.": null, 
        "__gid": null
      }
    }, 
    {
      "geometry": {
        "type": "Point", 
        "coordinates": [
          -105.267, 
          40.8263
        ]
      }, 
      "type": "Feature", 
      "properties": {
        "Station Name": "Cherokee Park", 
        "Longitude": -105.267, 
        "Irrigation Type": "Dry land", 
        "First Obs.": null, 
        "gid": 33, 
        "Elev (ft)": 5956, 
        "Location": "1 mile west of US 287 on Road 80C", 
        "Station Type": "Coagmet", 
        "Latitude": 40.8263, 
        "ID": "CKP01", 
        "Last Obs.": null, 
        "__gid": null
      }
    }, 
    {
      "geometry": {
        "type": "Point", 
        "coordinates": [
          -106.934, 
          40.7043
        ]
      }, 
      "type": "Feature", 
      "properties": {
        "Station Name": "Clark", 
        "Longitude": -106.934, 
        "Irrigation Type": "Fully Irrigated", 
        "First Obs.": null, 
        "gid": 34, 
        "Elev (ft)": 7221, 
        "Location": "1 mile WSW of Clark", 
        "Station Type": "Coagmet", 
        "Latitude": 40.7043, 
        "ID": "CLK01", 
        "Last Obs.": null, 
        "__gid": null
      }
    }, 
    {
      "geometry": {
        "type": "Point", 
        "coordinates": [
          -105.178, 
          38.4319
        ]
      }, 
      "type": "Feature", 
      "properties": {
        "Station Name": "Canon City", 
        "Longitude": -105.178, 
        "Irrigation Type": "Partial Irrigation", 
        "First Obs.": null, 
        "gid": 35, 
        "Elev (ft)": 5273, 
        "Location": "East of Canon City", 
        "Station Type": "Coagmet", 
        "Latitude": 38.4319, 
        "ID": "CNN01", 
        "Last Obs.": null, 
        "__gid": null
      }
    }, 
    {
      "geometry": {
        "type": "Point", 
        "coordinates": [
          -106.336, 
          40.8659
        ]
      }, 
      "type": "Feature", 
      "properties": {
        "Station Name": "Cowdrey", 
        "Longitude": -106.336, 
        "Irrigation Type": "Fully Irrigated", 
        "First Obs.": null, 
        "gid": 36, 
        "Elev (ft)": 7895, 
        "Location": "9 miles north of Walden", 
        "Station Type": "Coagmet", 
        "Latitude": 40.8659, 
        "ID": "COW01", 
        "Last Obs.": null, 
        "__gid": null
      }
    }, 
    {
      "geometry": {
        "type": "Point", 
        "coordinates": [
          -106.144, 
          37.7067
        ]
      }, 
      "type": "Feature", 
      "properties": {
        "Station Name": "Center", 
        "Longitude": -106.144, 
        "Irrigation Type": "Partial Irrigation", 
        "First Obs.": null, 
        "gid": 37, 
        "Elev (ft)": 7702, 
        "Location": "CSU San Luis Valley Expt Sta", 
        "Station Type": "Coagmet", 
        "Latitude": 37.7067, 
        "ID": "CTR01", 
        "Last Obs.": null, 
        "__gid": null
      }
    }, 
    {
      "geometry": {
        "type": "Point", 
        "coordinates": [
          -106.038, 
          37.8288
        ]
      }, 
      "type": "Feature", 
      "properties": {
        "Station Name": "Center #2", 
        "Longitude": -106.038, 
        "Irrigation Type": "Partial Irrigation", 
        "First Obs.": null, 
        "gid": 38, 
        "Elev (ft)": 7608, 
        "Location": "Coors Research Farm", 
        "Station Type": "Coagmet", 
        "Latitude": 37.8288, 
        "ID": "CTR02", 
        "Last Obs.": null, 
        "__gid": null
      }
    }, 
    {
      "geometry": {
        "type": "Point", 
        "coordinates": [
          -108.673, 
          37.2248
        ]
      }, 
      "type": "Feature", 
      "properties": {
        "Station Name": "Cortez", 
        "Longitude": -108.673, 
        "Irrigation Type": "Fully Irrigated", 
        "First Obs.": null, 
        "gid": 39, 
        "Elev (ft)": 6015, 
        "Location": "9 mi SW Cortez", 
        "Station Type": "Coagmet", 
        "Latitude": 37.2248, 
        "ID": "CTZ01", 
        "Last Obs.": null, 
        "__gid": null
      }
    }, 
    {
      "geometry": {
        "type": "Point", 
        "coordinates": [
          -108.118, 
          38.7342
        ]
      }, 
      "type": "Feature", 
      "properties": {
        "Station Name": "Delta", 
        "Longitude": -108.118, 
        "Irrigation Type": "Partial Irrigation", 
        "First Obs.": null, 
        "gid": 40, 
        "Elev (ft)": 5010, 
        "Location": "3 mi W Delta", 
        "Station Type": "Coagmet", 
        "Latitude": 38.7342, 
        "ID": "DLT01", 
        "Last Obs.": null, 
        "__gid": null
      }
    }, 
    {
      "geometry": {
        "type": "Point", 
        "coordinates": [
          -108.954, 
          37.7265
        ]
      }, 
      "type": "Feature", 
      "properties": {
        "Station Name": "Dove Creek", 
        "Longitude": -108.954, 
        "Irrigation Type": "Dry land", 
        "First Obs.": null, 
        "gid": 41, 
        "Elev (ft)": 6595, 
        "Location": "4 mi NW Dove Creek", 
        "Station Type": "Coagmet", 
        "Latitude": 37.7265, 
        "ID": "DVC01", 
        "Last Obs.": null, 
        "__gid": null
      }
    }, 
    {
      "geometry": {
        "type": "Point", 
        "coordinates": [
          -103.798, 
          39.7857
        ]
      }, 
      "type": "Feature", 
      "properties": {
        "Station Name": "Eastern Adams County (landfill)", 
        "Longitude": -103.798, 
        "Irrigation Type": "Dry land", 
        "First Obs.": null, 
        "gid": 42, 
        "Elev (ft)": 4907, 
        "Location": "10 mi W Last Chance", 
        "Station Type": "Coagmet", 
        "Latitude": 39.7857, 
        "ID": "EAC01", 
        "Last Obs.": null, 
        "__gid": null
      }
    }, 
    {
      "geometry": {
        "type": "Point", 
        "coordinates": [
          -107.973, 
          38.8398
        ]
      }, 
      "type": "Feature", 
      "properties": {
        "Station Name": "Eckert", 
        "Longitude": -107.973, 
        "Irrigation Type": "Fully Irrigated", 
        "First Obs.": null, 
        "gid": 43, 
        "Elev (ft)": 5522, 
        "Location": "0.5 miles west of Eckert, CO", 
        "Station Type": "Coagmet", 
        "Latitude": 38.8398, 
        "ID": "EKT01", 
        "Last Obs.": null, 
        "__gid": null
      }
    }, 
    {
      "geometry": {
        "type": "Point", 
        "coordinates": [
          -108.75, 
          39.1667
        ]
      }, 
      "type": "Feature", 
      "properties": {
        "Station Name": "CSU Fruita Expt", 
        "Longitude": -108.75, 
        "Irrigation Type": "\u00a0", 
        "First Obs.": null, 
        "gid": 44, 
        "Elev (ft)": 4500, 
        "Location": "2 mi ENE of Fruita", 
        "Station Type": "Coagmet", 
        "Latitude": 39.1667, 
        "ID": "FRT01", 
        "Last Obs.": null, 
        "__gid": null
      }
    }, 
    {
      "geometry": {
        "type": "Point", 
        "coordinates": [
          -108.7, 
          39.1803
        ]
      }, 
      "type": "Feature", 
      "properties": {
        "Station Name": "CSU Fruita Expt Station", 
        "Longitude": -108.7, 
        "Irrigation Type": "Partial Irrigation", 
        "First Obs.": null, 
        "gid": 45, 
        "Elev (ft)": 4519, 
        "Location": "2 mi ENE Fruita", 
        "Station Type": "Coagmet", 
        "Latitude": 39.1803, 
        "ID": "FRT02", 
        "Last Obs.": null, 
        "__gid": null
      }
    }, 
    {
      "geometry": {
        "type": "Point", 
        "coordinates": [
          -105.137, 
          40.5947
        ]
      }, 
      "type": "Feature", 
      "properties": {
        "Station Name": "Fort Collins AERC", 
        "Longitude": -105.137, 
        "Irrigation Type": "Partial Irrigation", 
        "First Obs.": null, 
        "gid": 46, 
        "Elev (ft)": 5120, 
        "Location": "Fort Collins AERC", 
        "Station Type": "Coagmet", 
        "Latitude": 40.5947, 
        "ID": "FTC01", 
        "Last Obs.": null, 
        "__gid": null
      }
    }, 
    {
      "geometry": {
        "type": "Point", 
        "coordinates": [
          -105, 
          40.6525
        ]
      }, 
      "type": "Feature", 
      "properties": {
        "Station Name": "CSU - ARDEC", 
        "Longitude": -105, 
        "Irrigation Type": "Partial Irrigation", 
        "First Obs.": null, 
        "gid": 47, 
        "Elev (ft)": 5110, 
        "Location": "6 mi NE Fort Collins", 
        "Station Type": "Coagmet", 
        "Latitude": 40.6525, 
        "ID": "FTC03", 
        "Last Obs.": null, 
        "__gid": null
      }
    }, 
    {
      "geometry": {
        "type": "Point", 
        "coordinates": [
          -104.849, 
          40.0011
        ]
      }, 
      "type": "Feature", 
      "properties": {
        "Station Name": "Fort Lupton", 
        "Longitude": -104.849, 
        "Irrigation Type": "Partial Irrigation", 
        "First Obs.": null, 
        "gid": 48, 
        "Elev (ft)": 5055, 
        "Location": "6 mi SSW Fort Lupton", 
        "Station Type": "Coagmet", 
        "Latitude": 40.0011, 
        "ID": "FTL01", 
        "Last Obs.": null, 
        "__gid": null
      }
    }, 
    {
      "geometry": {
        "type": "Point", 
        "coordinates": [
          -103.954, 
          40.2585
        ]
      }, 
      "type": "Feature", 
      "properties": {
        "Station Name": "Fort Morgan", 
        "Longitude": -103.954, 
        "Irrigation Type": "Partial Irrigation", 
        "First Obs.": null, 
        "gid": 49, 
        "Elev (ft)": 4320, 
        "Location": "8 mi W Fort Morgan", 
        "Station Type": "Coagmet", 
        "Latitude": 40.2585, 
        "ID": "FTM01", 
        "Last Obs.": null, 
        "__gid": null
      }
    }, 
    {
      "geometry": {
        "type": "Point", 
        "coordinates": [
          -104.032, 
          38.1351
        ]
      }, 
      "type": "Feature", 
      "properties": {
        "Station Name": "Fowler", 
        "Longitude": -104.032, 
        "Irrigation Type": "Fully Irrigated", 
        "First Obs.": null, 
        "gid": 50, 
        "Elev (ft)": 4335, 
        "Location": "Fowler Golf Course", 
        "Station Type": "Coagmet", 
        "Latitude": 38.1351, 
        "ID": "FWL01", 
        "Last Obs.": null, 
        "__gid": null
      }
    }, 
    {
      "geometry": {
        "type": "Point", 
        "coordinates": [
          -105.943, 
          40.1047
        ]
      }, 
      "type": "Feature", 
      "properties": {
        "Station Name": "Granby", 
        "Longitude": -105.943, 
        "Irrigation Type": "Fully Irrigated", 
        "First Obs.": null, 
        "gid": 51, 
        "Elev (ft)": 7911, 
        "Location": "1 mile N of Granby", 
        "Station Type": "Coagmet", 
        "Latitude": 40.1047, 
        "ID": "GBY01", 
        "Last Obs.": null, 
        "__gid": null
      }
    }, 
    {
      "geometry": {
        "type": "Point", 
        "coordinates": [
          -108.632, 
          39.1752
        ]
      }, 
      "type": "Feature", 
      "properties": {
        "Station Name": "Grand Junction", 
        "Longitude": -108.632, 
        "Irrigation Type": "Dry land", 
        "First Obs.": null, 
        "gid": 52, 
        "Elev (ft)": 4869, 
        "Location": "3 mi NW Grand Junction", 
        "Station Type": "Coagmet", 
        "Latitude": 39.1752, 
        "ID": "GJC01", 
        "Last Obs.": null, 
        "__gid": null
      }
    }, 
    {
      "geometry": {
        "type": "Point", 
        "coordinates": [
          -104.647, 
          40.4394
        ]
      }, 
      "type": "Feature", 
      "properties": {
        "Station Name": "Greeley", 
        "Longitude": -104.647, 
        "Irrigation Type": "Partial Irrigation", 
        "First Obs.": null, 
        "gid": 53, 
        "Elev (ft)": 4680, 
        "Location": "2.5 mi NE Greeley", 
        "Station Type": "Coagmet", 
        "Latitude": 40.4394, 
        "ID": "GLY03", 
        "Last Obs.": null, 
        "__gid": null
      }
    }, 
    {
      "geometry": {
        "type": "Point", 
        "coordinates": [
          -104.638, 
          40.4487
        ]
      }, 
      "type": "Feature", 
      "properties": {
        "Station Name": "Greeley 4", 
        "Longitude": -104.638, 
        "Irrigation Type": "Fully Irrigated", 
        "First Obs.": null, 
        "gid": 54, 
        "Elev (ft)": 4683, 
        "Location": "1.5 mi N of Greeley Airport", 
        "Station Type": "Coagmet", 
        "Latitude": 40.4487, 
        "ID": "GLY04", 
        "Last Obs.": null, 
        "__gid": null
      }
    }, 
    {
      "geometry": {
        "type": "Point", 
        "coordinates": [
          -106.947, 
          39.6344
        ]
      }, 
      "type": "Feature", 
      "properties": {
        "Station Name": "Gypsum", 
        "Longitude": -106.947, 
        "Irrigation Type": "Partial Irrigation", 
        "First Obs.": null, 
        "gid": 55, 
        "Elev (ft)": 6470, 
        "Location": "1 mi S Gypsum", 
        "Station Type": "Coagmet", 
        "Latitude": 39.6344, 
        "ID": "GYP01", 
        "Last Obs.": null, 
        "__gid": null
      }
    }, 
    {
      "geometry": {
        "type": "Point", 
        "coordinates": [
          -106.388, 
          40.5455
        ]
      }, 
      "type": "Feature", 
      "properties": {
        "Station Name": "Hebron", 
        "Longitude": -106.388, 
        "Irrigation Type": "Fully Irrigated", 
        "First Obs.": null, 
        "gid": 56, 
        "Elev (ft)": 8170, 
        "Location": "13 miles SW of Walden", 
        "Station Type": "Coagmet", 
        "Latitude": 40.5455, 
        "ID": "HEB01", 
        "Last Obs.": null, 
        "__gid": null
      }
    }, 
    {
      "geometry": {
        "type": "Point", 
        "coordinates": [
          -102.09, 
          38.07
        ]
      }, 
      "type": "Feature", 
      "properties": {
        "Station Name": "Holly", 
        "Longitude": -102.09, 
        "Irrigation Type": "Partial Irrigation", 
        "First Obs.": null, 
        "gid": 57, 
        "Elev (ft)": 3636, 
        "Location": "5 mi NW Holly", 
        "Station Type": "Coagmet", 
        "Latitude": 38.07, 
        "ID": "HLY01", 
        "Last Obs.": null, 
        "__gid": null
      }
    }, 
    {
      "geometry": {
        "type": "Point", 
        "coordinates": [
          -102.241, 
          38.1361
        ]
      }, 
      "type": "Feature", 
      "properties": {
        "Station Name": "Holly #2", 
        "Longitude": -102.241, 
        "Irrigation Type": "Fully Irrigated", 
        "First Obs.": null, 
        "gid": 58, 
        "Elev (ft)": 3570, 
        "Location": "8.5 mi NW Holly", 
        "Station Type": "Coagmet", 
        "Latitude": 38.1361, 
        "ID": "HLY02", 
        "Last Obs.": null, 
        "__gid": null
      }
    }, 
    {
      "geometry": {
        "type": "Point", 
        "coordinates": [
          -104.313, 
          37.2893
        ]
      }, 
      "type": "Feature", 
      "properties": {
        "Station Name": "Hoehne", 
        "Longitude": -104.313, 
        "Irrigation Type": "Partial Irrigation", 
        "First Obs.": null, 
        "gid": 59, 
        "Elev (ft)": 5625, 
        "Location": "NE Trinidad", 
        "Station Type": "Coagmet", 
        "Latitude": 37.2893, 
        "ID": "HNE01", 
        "Last Obs.": null, 
        "__gid": null
      }
    }, 
    {
      "geometry": {
        "type": "Point", 
        "coordinates": [
          -107.792, 
          38.7917
        ]
      }, 
      "type": "Feature", 
      "properties": {
        "Station Name": "CSU Rogers Mesa Expt Sta", 
        "Longitude": -107.792, 
        "Irrigation Type": "Partial Irrigation", 
        "First Obs.": null, 
        "gid": 60, 
        "Elev (ft)": 5547, 
        "Location": "4 mi W Hotchkiss", 
        "Station Type": "Coagmet", 
        "Latitude": 38.7917, 
        "ID": "HOT01", 
        "Last Obs.": null, 
        "__gid": null
      }
    }, 
    {
      "geometry": {
        "type": "Point", 
        "coordinates": [
          -102.625, 
          39.9552
        ]
      }, 
      "type": "Feature", 
      "properties": {
        "Station Name": "Heartstrong", 
        "Longitude": -102.625, 
        "Irrigation Type": "Partial Irrigation", 
        "First Obs.": null, 
        "gid": 61, 
        "Elev (ft)": 4129, 
        "Location": "12 mi SSE Yuma", 
        "Station Type": "Coagmet", 
        "Latitude": 39.9552, 
        "ID": "HRT01", 
        "Last Obs.": null, 
        "__gid": null
      }
    }, 
    {
      "geometry": {
        "type": "Point", 
        "coordinates": [
          -107.181, 
          40.499
        ]
      }, 
      "type": "Feature", 
      "properties": {
        "Station Name": "Hayden", 
        "Longitude": -107.181, 
        "Irrigation Type": "Fully Irrigated", 
        "First Obs.": null, 
        "gid": 62, 
        "Elev (ft)": 6454, 
        "Location": "4 mi E of Hayden", 
        "Station Type": "Coagmet", 
        "Latitude": 40.499, 
        "ID": "HYD01", 
        "Last Obs.": null, 
        "__gid": null
      }
    }, 
    {
      "geometry": {
        "type": "Point", 
        "coordinates": [
          -102.089, 
          40.4909
        ]
      }, 
      "type": "Feature", 
      "properties": {
        "Station Name": "Holyoke", 
        "Longitude": -102.089, 
        "Irrigation Type": "Dry land", 
        "First Obs.": null, 
        "gid": 63, 
        "Elev (ft)": 3735, 
        "Location": "12 mi SE Holyoke", 
        "Station Type": "Coagmet", 
        "Latitude": 40.4909, 
        "ID": "HYK02", 
        "Last Obs.": null, 
        "__gid": null
      }
    }, 
    {
      "geometry": {
        "type": "Point", 
        "coordinates": [
          -102.302, 
          39.7312
        ]
      }, 
      "type": "Feature", 
      "properties": {
        "Station Name": "Idalia", 
        "Longitude": -102.302, 
        "Irrigation Type": "Fully Irrigated", 
        "First Obs.": null, 
        "gid": 64, 
        "Elev (ft)": 3975, 
        "Location": "2 mi N Idalia", 
        "Station Type": "Coagmet", 
        "Latitude": 39.7312, 
        "ID": "IDL01", 
        "Last Obs.": null, 
        "__gid": null
      }
    }, 
    {
      "geometry": {
        "type": "Point", 
        "coordinates": [
          -107.707, 
          37.1383
        ]
      }, 
      "type": "Feature", 
      "properties": {
        "Station Name": "Ignacio", 
        "Longitude": -107.707, 
        "Irrigation Type": "Fully Irrigated", 
        "First Obs.": null, 
        "gid": 65, 
        "Elev (ft)": 6617, 
        "Location": "4 mi NW of Ignacio, CO", 
        "Station Type": "Coagmet", 
        "Latitude": 37.1383, 
        "ID": "IGN01", 
        "Last Obs.": null, 
        "__gid": null
      }
    }, 
    {
      "geometry": {
        "type": "Point", 
        "coordinates": [
          -103.045, 
          40.7678
        ]
      }, 
      "type": "Feature", 
      "properties": {
        "Station Name": "Iliff", 
        "Longitude": -103.045, 
        "Irrigation Type": "Dry land", 
        "First Obs.": null, 
        "gid": 66, 
        "Elev (ft)": 3822, 
        "Location": "1.5 mi NE of Iliff", 
        "Station Type": "Coagmet", 
        "Latitude": 40.7678, 
        "ID": "ILF01", 
        "Last Obs.": null, 
        "__gid": null
      }
    }, 
    {
      "geometry": {
        "type": "Point", 
        "coordinates": [
          -108.146, 
          37.1261
        ]
      }, 
      "type": "Feature", 
      "properties": {
        "Station Name": "Kline", 
        "Longitude": -108.146, 
        "Irrigation Type": "Partial Irrigation", 
        "First Obs.": null, 
        "gid": 67, 
        "Elev (ft)": 6755, 
        "Location": "2 mi SW of Kline, CO", 
        "Station Type": "Coagmet", 
        "Latitude": 37.1261, 
        "ID": "KLN01", 
        "Last Obs.": null, 
        "__gid": null
      }
    }, 
    {
      "geometry": {
        "type": "Point", 
        "coordinates": [
          -102.621, 
          39.6554
        ]
      }, 
      "type": "Feature", 
      "properties": {
        "Station Name": "Kirk", 
        "Longitude": -102.621, 
        "Irrigation Type": "Partial Irrigation", 
        "First Obs.": null, 
        "gid": 68, 
        "Elev (ft)": 4213, 
        "Location": "3 mi W Joes", 
        "Station Type": "Coagmet", 
        "Latitude": 39.6554, 
        "ID": "KRK01", 
        "Last Obs.": null, 
        "__gid": null
      }
    }, 
    {
      "geometry": {
        "type": "Point", 
        "coordinates": [
          -106.283, 
          40.1154
        ]
      }, 
      "type": "Feature", 
      "properties": {
        "Station Name": "Kremmling", 
        "Longitude": -106.283, 
        "Irrigation Type": "Fully Irrigated", 
        "First Obs.": null, 
        "gid": 69, 
        "Elev (ft)": 7534, 
        "Location": "7 miles NE of Kremmling", 
        "Station Type": "Coagmet", 
        "Latitude": 40.1154, 
        "ID": "KRM01", 
        "Last Obs.": null, 
        "__gid": null
      }
    }, 
    {
      "geometry": {
        "type": "Point", 
        "coordinates": [
          -104.532, 
          40.3768
        ]
      }, 
      "type": "Feature", 
      "properties": {
        "Station Name": "Kersey 1", 
        "Longitude": -104.532, 
        "Irrigation Type": "Partial Irrigation", 
        "First Obs.": null, 
        "gid": 70, 
        "Elev (ft)": 4625, 
        "Location": "2 mi SE Kersey", 
        "Station Type": "Coagmet", 
        "Latitude": 40.3768, 
        "ID": "KSY01", 
        "Last Obs.": null, 
        "__gid": null
      }
    }, 
    {
      "geometry": {
        "type": "Point", 
        "coordinates": [
          -104.478, 
          40.3629
        ]
      }, 
      "type": "Feature", 
      "properties": {
        "Station Name": "Kersey 2", 
        "Longitude": -104.478, 
        "Irrigation Type": "Partial Irrigation", 
        "First Obs.": null, 
        "gid": 71, 
        "Elev (ft)": 4563, 
        "Location": "4 mi SE Kersey", 
        "Station Type": "Coagmet", 
        "Latitude": 40.3629, 
        "ID": "KSY02", 
        "Last Obs.": null, 
        "__gid": null
      }
    }, 
    {
      "geometry": {
        "type": "Point", 
        "coordinates": [
          -102.596, 
          37.9807
        ]
      }, 
      "type": "Feature", 
      "properties": {
        "Station Name": "Lamar #1", 
        "Longitude": -102.596, 
        "Irrigation Type": "Dry land", 
        "First Obs.": null, 
        "gid": 72, 
        "Elev (ft)": 3776, 
        "Location": "4.5 Mi S Lamar", 
        "Station Type": "Coagmet", 
        "Latitude": 37.9807, 
        "ID": "LAM01", 
        "Last Obs.": null, 
        "__gid": null
      }
    }, 
    {
      "geometry": {
        "type": "Point", 
        "coordinates": [
          -102.559, 
          38.1734
        ]
      }, 
      "type": "Feature", 
      "properties": {
        "Station Name": "Lamar #2", 
        "Longitude": -102.559, 
        "Irrigation Type": "Dry land", 
        "First Obs.": null, 
        "gid": 73, 
        "Elev (ft)": 3736, 
        "Location": "7 mi NNE Lamar", 
        "Station Type": "Coagmet", 
        "Latitude": 38.1734, 
        "ID": "LAM02", 
        "Last Obs.": null, 
        "__gid": null
      }
    }, 
    {
      "geometry": {
        "type": "Point", 
        "coordinates": [
          -102.713, 
          37.9798
        ]
      }, 
      "type": "Feature", 
      "properties": {
        "Station Name": "Lamar #3", 
        "Longitude": -102.713, 
        "Irrigation Type": "Dry land", 
        "First Obs.": null, 
        "gid": 74, 
        "Elev (ft)": 3918, 
        "Location": "10 mi SW Lamar", 
        "Station Type": "Coagmet", 
        "Latitude": 37.9798, 
        "ID": "LAM03", 
        "Last Obs.": null, 
        "__gid": null
      }
    }, 
    {
      "geometry": {
        "type": "Point", 
        "coordinates": [
          -102.599, 
          38.1539
        ]
      }, 
      "type": "Feature", 
      "properties": {
        "Station Name": "Lamar #4", 
        "Longitude": -102.599, 
        "Irrigation Type": "Fully Irrigated", 
        "First Obs.": null, 
        "gid": 75, 
        "Elev (ft)": 3705, 
        "Location": "4.5 mi NNE Lamar", 
        "Station Type": "Coagmet", 
        "Latitude": 38.1539, 
        "ID": "LAM04", 
        "Last Obs.": null, 
        "__gid": null
      }
    }, 
    {
      "geometry": {
        "type": "Point", 
        "coordinates": [
          -106.3, 
          40.6126
        ]
      }, 
      "type": "Feature", 
      "properties": {
        "Station Name": "Larand", 
        "Longitude": -106.3, 
        "Irrigation Type": "Fully Irrigated", 
        "First Obs.": null, 
        "gid": 76, 
        "Elev (ft)": 8252, 
        "Location": "8 miles south of Walden", 
        "Station Type": "Coagmet", 
        "Latitude": 40.6126, 
        "ID": "LAR01", 
        "Last Obs.": null, 
        "__gid": null
      }
    }, 
    {
      "geometry": {
        "type": "Point", 
        "coordinates": [
          -104.707, 
          40.4756
        ]
      }, 
      "type": "Feature", 
      "properties": {
        "Station Name": "Lucerne", 
        "Longitude": -104.707, 
        "Irrigation Type": "Partial Irrigation", 
        "First Obs.": null, 
        "gid": 77, 
        "Elev (ft)": 4750, 
        "Location": "1/4 mi SW Lucerne", 
        "Station Type": "Coagmet", 
        "Latitude": 40.4756, 
        "ID": "LCN01", 
        "Last Obs.": null, 
        "__gid": null
      }
    }, 
    {
      "geometry": {
        "type": "Point", 
        "coordinates": [
          -105.972, 
          37.2443
        ]
      }, 
      "type": "Feature", 
      "properties": {
        "Station Name": "LaJara", 
        "Longitude": -105.972, 
        "Irrigation Type": "Partial Irrigation", 
        "First Obs.": null, 
        "gid": 78, 
        "Elev (ft)": 7595, 
        "Location": "2 mi S LaJara", 
        "Station Type": "Coagmet", 
        "Latitude": 37.2443, 
        "ID": "LJR01", 
        "Last Obs.": null, 
        "__gid": null
      }
    }, 
    {
      "geometry": {
        "type": "Point", 
        "coordinates": [
          -103.366, 
          38.0778
        ]
      }, 
      "type": "Feature", 
      "properties": {
        "Station Name": "LaJunta", 
        "Longitude": -103.366, 
        "Irrigation Type": "Fully Irrigated", 
        "First Obs.": null, 
        "gid": 79, 
        "Elev (ft)": 3960, 
        "Location": "11 mi NE LaJunta", 
        "Station Type": "Coagmet", 
        "Latitude": 38.0778, 
        "ID": "LJT01", 
        "Last Obs.": null, 
        "__gid": null
      }
    }, 
    {
      "geometry": {
        "type": "Point", 
        "coordinates": [
          -104.63, 
          40.3349
        ]
      }, 
      "type": "Feature", 
      "properties": {
        "Station Name": "La Salle", 
        "Longitude": -104.63, 
        "Irrigation Type": "Partial Irrigation", 
        "First Obs.": null, 
        "gid": 80, 
        "Elev (ft)": 4676, 
        "Location": "4 mi SE of La Salle", 
        "Station Type": "Coagmet", 
        "Latitude": 40.3349, 
        "ID": "LSL01", 
        "Last Obs.": null, 
        "__gid": null
      }
    }, 
    {
      "geometry": {
        "type": "Point", 
        "coordinates": [
          -107.908, 
          40.0083
        ]
      }, 
      "type": "Feature", 
      "properties": {
        "Station Name": "Meeker", 
        "Longitude": -107.908, 
        "Irrigation Type": "Fully Irrigated", 
        "First Obs.": null, 
        "gid": 81, 
        "Elev (ft)": 6342, 
        "Location": "2 miles S of Meeker", 
        "Station Type": "Coagmet", 
        "Latitude": 40.0083, 
        "ID": "MKR01", 
        "Last Obs.": null, 
        "__gid": null
      }
    }, 
    {
      "geometry": {
        "type": "Point", 
        "coordinates": [
          -108.338, 
          37.322
        ]
      }, 
      "type": "Feature", 
      "properties": {
        "Station Name": "Mancos", 
        "Longitude": -108.338, 
        "Irrigation Type": "Fully Irrigated", 
        "First Obs.": null, 
        "gid": 82, 
        "Elev (ft)": 6730, 
        "Location": "3.5 Mi SW Mancos", 
        "Station Type": "Coagmet", 
        "Latitude": 37.322, 
        "ID": "MNC01", 
        "Last Obs.": null, 
        "__gid": null
      }
    }, 
    {
      "geometry": {
        "type": "Point", 
        "coordinates": [
          -107.914, 
          38.5469
        ]
      }, 
      "type": "Feature", 
      "properties": {
        "Station Name": "Montrose", 
        "Longitude": -107.914, 
        "Irrigation Type": "Fully Irrigated", 
        "First Obs.": null, 
        "gid": 83, 
        "Elev (ft)": 5651, 
        "Location": "3 miles NW of Montrose", 
        "Station Type": "Coagmet", 
        "Latitude": 38.5469, 
        "ID": "MTR01", 
        "Last Obs.": null, 
        "__gid": null
      }
    }, 
    {
      "geometry": {
        "type": "Point", 
        "coordinates": [
          -108.284, 
          38.151
        ]
      }, 
      "type": "Feature", 
      "properties": {
        "Station Name": "Norwood", 
        "Longitude": -108.284, 
        "Irrigation Type": "Partial Irrigation", 
        "First Obs.": null, 
        "gid": 84, 
        "Elev (ft)": 7000, 
        "Location": "2 mi South of Norwood", 
        "Station Type": "Coagmet", 
        "Latitude": 38.151, 
        "ID": "NWD01", 
        "Last Obs.": null, 
        "__gid": null
      }
    }, 
    {
      "geometry": {
        "type": "Point", 
        "coordinates": [
          -108.466, 
          39.0424
        ]
      }, 
      "type": "Feature", 
      "properties": {
        "Station Name": "Orchard Mesa", 
        "Longitude": -108.466, 
        "Irrigation Type": "Partial Irrigation", 
        "First Obs.": null, 
        "gid": 85, 
        "Elev (ft)": 4600, 
        "Location": "Orchard Mesa", 
        "Station Type": "Coagmet", 
        "Latitude": 39.0424, 
        "ID": "ORM01", 
        "Last Obs.": null, 
        "__gid": null
      }
    }, 
    {
      "geometry": {
        "type": "Point", 
        "coordinates": [
          -107.964, 
          38.6351
        ]
      }, 
      "type": "Feature", 
      "properties": {
        "Station Name": "Olathe", 
        "Longitude": -107.964, 
        "Irrigation Type": "Partial Irrigation", 
        "First Obs.": null, 
        "gid": 86, 
        "Elev (ft)": 5324, 
        "Location": "3 mi NE Olathe", 
        "Station Type": "Coagmet", 
        "Latitude": 38.6351, 
        "ID": "OTH01", 
        "Last Obs.": null, 
        "__gid": null
      }
    }, 
    {
      "geometry": {
        "type": "Point", 
        "coordinates": [
          -108.069, 
          38.6135
        ]
      }, 
      "type": "Feature", 
      "properties": {
        "Station Name": "Olathe 2", 
        "Longitude": -108.069, 
        "Irrigation Type": "Fully Irrigated", 
        "First Obs.": null, 
        "gid": 87, 
        "Elev (ft)": 5450, 
        "Location": "4 mi W Olathe", 
        "Station Type": "Coagmet", 
        "Latitude": 38.6135, 
        "ID": "OTH02", 
        "Last Obs.": null, 
        "__gid": null
      }
    }, 
    {
      "geometry": {
        "type": "Point", 
        "coordinates": [
          -102.475, 
          40.4248
        ]
      }, 
      "type": "Feature", 
      "properties": {
        "Station Name": "Paoli", 
        "Longitude": -102.475, 
        "Irrigation Type": "Dry land", 
        "First Obs.": null, 
        "gid": 88, 
        "Elev (ft)": 3875, 
        "Location": "RD U & 59", 
        "Station Type": "Coagmet", 
        "Latitude": 40.4248, 
        "ID": "PAI01", 
        "Last Obs.": null, 
        "__gid": null
      }
    }, 
    {
      "geometry": {
        "type": "Point", 
        "coordinates": [
          -107.599, 
          38.8656
        ]
      }, 
      "type": "Feature", 
      "properties": {
        "Station Name": "Paonia", 
        "Longitude": -107.599, 
        "Irrigation Type": "\u00a0", 
        "First Obs.": null, 
        "gid": 89, 
        "Elev (ft)": 5643, 
        "Location": "Paonia", 
        "Station Type": "Coagmet", 
        "Latitude": 38.8656, 
        "ID": "PAN01", 
        "Last Obs.": null, 
        "__gid": null
      }
    }, 
    {
      "geometry": {
        "type": "Point", 
        "coordinates": [
          -104.467, 
          38.2317
        ]
      }, 
      "type": "Feature", 
      "properties": {
        "Station Name": "Pueblo (defunct)", 
        "Longitude": -104.467, 
        "Irrigation Type": "\u00a0", 
        "First Obs.": null, 
        "gid": 90, 
        "Elev (ft)": 4710, 
        "Location": "Pueblo", 
        "Station Type": "Coagmet", 
        "Latitude": 38.2317, 
        "ID": "PBL01", 
        "Last Obs.": null, 
        "__gid": null
      }
    }, 
    {
      "geometry": {
        "type": "Point", 
        "coordinates": [
          -106.983, 
          37.277
        ]
      }, 
      "type": "Feature", 
      "properties": {
        "Station Name": "Pagosa Springs", 
        "Longitude": -106.983, 
        "Irrigation Type": "Fully Irrigated", 
        "First Obs.": null, 
        "gid": 91, 
        "Elev (ft)": 7181, 
        "Location": "2 mi from Pagosa Springs", 
        "Station Type": "Coagmet", 
        "Latitude": 37.277, 
        "ID": "PGS01", 
        "Last Obs.": null, 
        "__gid": null
      }
    }, 
    {
      "geometry": {
        "type": "Point", 
        "coordinates": [
          -104.727, 
          40.3125
        ]
      }, 
      "type": "Feature", 
      "properties": {
        "Station Name": "Peckham", 
        "Longitude": -104.727, 
        "Irrigation Type": "Partial Irrigation", 
        "First Obs.": null, 
        "gid": 92, 
        "Elev (ft)": 4701, 
        "Location": "3 mi ENE Peckham", 
        "Station Type": "Coagmet", 
        "Latitude": 40.3125, 
        "ID": "PKH01", 
        "Last Obs.": null, 
        "__gid": null
      }
    }, 
    {
      "geometry": {
        "type": "Point", 
        "coordinates": [
          -104.811, 
          39.5505
        ]
      }, 
      "type": "Feature", 
      "properties": {
        "Station Name": "Parker", 
        "Longitude": -104.811, 
        "Irrigation Type": "Dry land", 
        "First Obs.": null, 
        "gid": 93, 
        "Elev (ft)": 5813, 
        "Location": "E470 and Chambers", 
        "Station Type": "Coagmet", 
        "Latitude": 39.5505, 
        "ID": "PKR01", 
        "Last Obs.": null, 
        "__gid": null
      }
    }, 
    {
      "geometry": {
        "type": "Point", 
        "coordinates": [
          -104.998, 
          38.4119
        ]
      }, 
      "type": "Feature", 
      "properties": {
        "Station Name": "Penrose", 
        "Longitude": -104.998, 
        "Irrigation Type": "Fully Irrigated", 
        "First Obs.": null, 
        "gid": 94, 
        "Elev (ft)": 5331, 
        "Location": "near L and 13th Sts.", 
        "Station Type": "Coagmet", 
        "Latitude": 38.4119, 
        "ID": "PNR01", 
        "Last Obs.": null, 
        "__gid": null
      }
    }, 
    {
      "geometry": {
        "type": "Point", 
        "coordinates": [
          -104.835, 
          40.2278
        ]
      }, 
      "type": "Feature", 
      "properties": {
        "Station Name": "Platteville", 
        "Longitude": -104.835, 
        "Irrigation Type": "\u00a0", 
        "First Obs.": null, 
        "gid": 95, 
        "Elev (ft)": 4700, 
        "Location": "1 mi NW Platteville", 
        "Station Type": "Coagmet", 
        "Latitude": 40.2278, 
        "ID": "PTV01", 
        "Last Obs.": null, 
        "__gid": null
      }
    }, 
    {
      "geometry": {
        "type": "Point", 
        "coordinates": [
          -103.695, 
          38.0385
        ]
      }, 
      "type": "Feature", 
      "properties": {
        "Station Name": "CSU Expt Stn Rocky Ford NRCS", 
        "Longitude": -103.695, 
        "Irrigation Type": "Fully Irrigated", 
        "First Obs.": null, 
        "gid": 96, 
        "Elev (ft)": 4180, 
        "Location": "Moved to HLY01", 
        "Station Type": "Coagmet", 
        "Latitude": 38.0385, 
        "ID": "RFD02", 
        "Last Obs.": null, 
        "__gid": null
      }
    }, 
    {
      "geometry": {
        "type": "Point", 
        "coordinates": [
          -105.611, 
          37.1417
        ]
      }, 
      "type": "Feature", 
      "properties": {
        "Station Name": "San Acacio", 
        "Longitude": -105.611, 
        "Irrigation Type": "Dry land", 
        "First Obs.": null, 
        "gid": 97, 
        "Elev (ft)": 7753, 
        "Location": "2 mi N Mesita", 
        "Station Type": "Coagmet", 
        "Latitude": 37.1417, 
        "ID": "SAN01", 
        "Last Obs.": null, 
        "__gid": null
      }
    }, 
    {
      "geometry": {
        "type": "Point", 
        "coordinates": [
          -102.925, 
          39.1187
        ]
      }, 
      "type": "Feature", 
      "properties": {
        "Station Name": "Seibert", 
        "Longitude": -102.925, 
        "Irrigation Type": "Dry land", 
        "First Obs.": null, 
        "gid": 98, 
        "Elev (ft)": 4852, 
        "Location": "Livingston CRP land south of Seibert", 
        "Station Type": "Coagmet", 
        "Latitude": 39.1187, 
        "ID": "SBT01", 
        "Last Obs.": null, 
        "__gid": null
      }
    }, 
    {
      "geometry": {
        "type": "Point", 
        "coordinates": [
          -102.503, 
          38.5439
        ]
      }, 
      "type": "Feature", 
      "properties": {
        "Station Name": "Sand Creek Massacre HS", 
        "Longitude": -102.503, 
        "Irrigation Type": "Dry land", 
        "First Obs.": null, 
        "gid": 99, 
        "Elev (ft)": 3963, 
        "Location": "7.5 mi NNE of Chivington", 
        "Station Type": "Coagmet", 
        "Latitude": 38.5439, 
        "ID": "SCM01", 
        "Last Obs.": null, 
        "__gid": null
      }
    }, 
    {
      "geometry": {
        "type": "Point", 
        "coordinates": [
          -106.043, 
          38.5715
        ]
      }, 
      "type": "Feature", 
      "properties": {
        "Station Name": "Salida", 
        "Longitude": -106.043, 
        "Irrigation Type": "Fully Irrigated", 
        "First Obs.": null, 
        "gid": 100, 
        "Elev (ft)": 7227, 
        "Location": "Near Salida", 
        "Station Type": "Coagmet", 
        "Latitude": 38.5715, 
        "ID": "SLD01", 
        "Last Obs.": null, 
        "__gid": null
      }
    }, 
    {
      "geometry": {
        "type": "Point", 
        "coordinates": [
          -107.693, 
          39.5667
        ]
      }, 
      "type": "Feature", 
      "properties": {
        "Station Name": "Silt", 
        "Longitude": -107.693, 
        "Irrigation Type": "Fully Irrigated", 
        "First Obs.": null, 
        "gid": 101, 
        "Elev (ft)": 5620, 
        "Location": "Silt Mesa", 
        "Station Type": "Coagmet", 
        "Latitude": 39.5667, 
        "ID": "SLT01", 
        "Last Obs.": null, 
        "__gid": null
      }
    }, 
    {
      "geometry": {
        "type": "Point", 
        "coordinates": [
          -103.028, 
          40.4632
        ]
      }, 
      "type": "Feature", 
      "properties": {
        "Station Name": "Sterling", 
        "Longitude": -103.028, 
        "Irrigation Type": "Dry land", 
        "First Obs.": null, 
        "gid": 102, 
        "Elev (ft)": 4472, 
        "Location": "Sterling", 
        "Station Type": "Coagmet", 
        "Latitude": 40.4632, 
        "ID": "STG01", 
        "Last Obs.": null, 
        "__gid": null
      }
    }, 
    {
      "geometry": {
        "type": "Point", 
        "coordinates": [
          -103.142, 
          40.1548
        ]
      }, 
      "type": "Feature", 
      "properties": {
        "Station Name": "Akron", 
        "Longitude": -103.142, 
        "Irrigation Type": "Dry land", 
        "First Obs.": null, 
        "gid": 103, 
        "Elev (ft)": 4537, 
        "Location": "USDA-ARS-GPRC", 
        "Station Type": "Coagmet", 
        "Latitude": 40.1548, 
        "ID": "AKR02", 
        "Last Obs.": null, 
        "__gid": null
      }
    }, 
    {
      "geometry": {
        "type": "Point", 
        "coordinates": [
          -108.855, 
          38.3279
        ]
      }, 
      "type": "Feature", 
      "properties": {
        "Station Name": "Bedrock", 
        "Longitude": -108.855, 
        "Irrigation Type": "Dry land", 
        "First Obs.": null, 
        "gid": 104, 
        "Elev (ft)": 4973, 
        "Location": "1 mile NE of Bedrock", 
        "Station Type": "Coagmet", 
        "Latitude": 38.3279, 
        "ID": "BRK01", 
        "Last Obs.": null, 
        "__gid": null
      }
    }, 
    {
      "geometry": {
        "type": "Point", 
        "coordinates": [
          -107.881, 
          37.1125
        ]
      }, 
      "type": "Feature", 
      "properties": {
        "Station Name": "Durango", 
        "Longitude": -107.881, 
        "Irrigation Type": "Fully Irrigated", 
        "First Obs.": null, 
        "gid": 105, 
        "Elev (ft)": 6203, 
        "Location": "11 mi S of Durango", 
        "Station Type": "Coagmet", 
        "Latitude": 37.1125, 
        "ID": "DRG01", 
        "Last Obs.": null, 
        "__gid": null
      }
    }, 
    {
      "geometry": {
        "type": "Point", 
        "coordinates": [
          -106.901, 
          38.6135
        ]
      }, 
      "type": "Feature", 
      "properties": {
        "Station Name": "Gunnison", 
        "Longitude": -106.901, 
        "Irrigation Type": "Fully Irrigated", 
        "First Obs.": null, 
        "gid": 106, 
        "Elev (ft)": 7894, 
        "Location": "5 miles North of Gunnison", 
        "Station Type": "Coagmet", 
        "Latitude": 38.6135, 
        "ID": "GUN01", 
        "Last Obs.": null, 
        "__gid": null
      }
    }, 
    {
      "geometry": {
        "type": "Point", 
        "coordinates": [
          -102.647, 
          40.6722
        ]
      }, 
      "type": "Feature", 
      "properties": {
        "Station Name": "Haxtun", 
        "Longitude": -102.647, 
        "Irrigation Type": "Partial Irrigation", 
        "First Obs.": null, 
        "gid": 107, 
        "Elev (ft)": 4040, 
        "Location": "2.5 mi NW Haxtun", 
        "Station Type": "Coagmet", 
        "Latitude": 40.6722, 
        "ID": "HXT01", 
        "Last Obs.": null, 
        "__gid": null
      }
    }, 
    {
      "geometry": {
        "type": "Point", 
        "coordinates": [
          -105.811, 
          39.3542
        ]
      }, 
      "type": "Feature", 
      "properties": {
        "Station Name": "Jefferson", 
        "Longitude": -105.811, 
        "Irrigation Type": "Dry land", 
        "First Obs.": null, 
        "gid": 108, 
        "Elev (ft)": 9460, 
        "Location": "1 mile SW of Jefferson,CO", 
        "Station Type": "Coagmet", 
        "Latitude": 39.3542, 
        "ID": "JFN01", 
        "Last Obs.": null, 
        "__gid": null
      }
    }, 
    {
      "geometry": {
        "type": "Point", 
        "coordinates": [
          -102.859, 
          38.1478
        ]
      }, 
      "type": "Feature", 
      "properties": {
        "Station Name": "McClave (was Las Animas)", 
        "Longitude": -102.859, 
        "Irrigation Type": "Fully Irrigated", 
        "First Obs.": null, 
        "gid": 109, 
        "Elev (ft)": 3895, 
        "Location": "1 mi NW McClave", 
        "Station Type": "Coagmet", 
        "Latitude": 38.1478, 
        "ID": "MCL01", 
        "Last Obs.": null, 
        "__gid": null
      }
    }, 
    {
      "geometry": {
        "type": "Point", 
        "coordinates": [
          -103.695, 
          38.0385
        ]
      }, 
      "type": "Feature", 
      "properties": {
        "Station Name": "CSU Expt Stn Rocky Ford", 
        "Longitude": -103.695, 
        "Irrigation Type": "Fully Irrigated", 
        "First Obs.": null, 
        "gid": 110, 
        "Elev (ft)": 4180, 
        "Location": "2.5 mi SE Rocky Ford", 
        "Station Type": "Coagmet", 
        "Latitude": 38.0385, 
        "ID": "RFD01", 
        "Last Obs.": null, 
        "__gid": null
      }
    }, 
    {
      "geometry": {
        "type": "Point", 
        "coordinates": [
          -102.522, 
          39.2987
        ]
      }, 
      "type": "Feature", 
      "properties": {
        "Station Name": "Stratton", 
        "Longitude": -102.522, 
        "Irrigation Type": "Dry land", 
        "First Obs.": null, 
        "gid": 111, 
        "Elev (ft)": 4321, 
        "Location": "Stratton", 
        "Station Type": "Coagmet", 
        "Latitude": 39.2987, 
        "ID": "STN01", 
        "Last Obs.": null, 
        "__gid": null
      }
    }, 
    {
      "geometry": {
        "type": "Point", 
        "coordinates": [
          -102.122, 
          37.1613
        ]
      }, 
      "type": "Feature", 
      "properties": {
        "Station Name": "Stonington", 
        "Longitude": -102.122, 
        "Irrigation Type": "Dry land", 
        "First Obs.": null, 
        "gid": 112, 
        "Elev (ft)": 3841, 
        "Location": "Stonington", 
        "Station Type": "Coagmet", 
        "Latitude": 37.1613, 
        "ID": "STT01", 
        "Last Obs.": null, 
        "__gid": null
      }
    }, 
    {
      "geometry": {
        "type": "Point", 
        "coordinates": [
          -108.935, 
          37.1891
        ]
      }, 
      "type": "Feature", 
      "properties": {
        "Station Name": "Towaoc", 
        "Longitude": -108.935, 
        "Irrigation Type": "Partial Irrigation", 
        "First Obs.": null, 
        "gid": 113, 
        "Elev (ft)": 5319, 
        "Location": "Ute Mtn Ute Farm", 
        "Station Type": "Coagmet", 
        "Latitude": 37.1891, 
        "ID": "TWC01", 
        "Last Obs.": null, 
        "__gid": null
      }
    }, 
    {
      "geometry": {
        "type": "Point", 
        "coordinates": [
          -104.35, 
          40.3806
        ]
      }, 
      "type": "Feature", 
      "properties": {
        "Station Name": "United Water", 
        "Longitude": -104.35, 
        "Irrigation Type": "Dry land", 
        "First Obs.": null, 
        "gid": 114, 
        "Elev (ft)": 4682, 
        "Location": "West of Wiggins", 
        "Station Type": "Coagmet", 
        "Latitude": 40.3806, 
        "ID": "UWR70", 
        "Last Obs.": null, 
        "__gid": null
      }
    }, 
    {
      "geometry": {
        "type": "Point", 
        "coordinates": [
          -104.461, 
          38.2235
        ]
      }, 
      "type": "Feature", 
      "properties": {
        "Station Name": "Vineland", 
        "Longitude": -104.461, 
        "Irrigation Type": "Fully Irrigated", 
        "First Obs.": null, 
        "gid": 115, 
        "Elev (ft)": 4420, 
        "Location": "13 mi SE Pueblo", 
        "Station Type": "Coagmet", 
        "Latitude": 38.2235, 
        "ID": "VLD01", 
        "Last Obs.": null, 
        "__gid": null
      }
    }, 
    {
      "geometry": {
        "type": "Point", 
        "coordinates": [
          -105.103, 
          40.7102
        ]
      }, 
      "type": "Feature", 
      "properties": {
        "Station Name": "Waverly", 
        "Longitude": -105.103, 
        "Irrigation Type": "Dry land", 
        "First Obs.": null, 
        "gid": 116, 
        "Elev (ft)": 5229, 
        "Location": "NW of Douglas Reservoir", 
        "Station Type": "Coagmet", 
        "Latitude": 40.7102, 
        "ID": "WAV01", 
        "Last Obs.": null, 
        "__gid": null
      }
    }, 
    {
      "geometry": {
        "type": "Point", 
        "coordinates": [
          -105.499, 
          38.1503
        ]
      }, 
      "type": "Feature", 
      "properties": {
        "Station Name": "Westcliffe", 
        "Longitude": -105.499, 
        "Irrigation Type": "Fully Irrigated", 
        "First Obs.": null, 
        "gid": 117, 
        "Elev (ft)": 7734, 
        "Location": "2 mi NW Westcliffe", 
        "Station Type": "Coagmet", 
        "Latitude": 38.1503, 
        "ID": "WCF01", 
        "Last Obs.": null, 
        "__gid": null
      }
    }, 
    {
      "geometry": {
        "type": "Point", 
        "coordinates": [
          -106.415, 
          40.1387
        ]
      }, 
      "type": "Feature", 
      "properties": {
        "Station Name": "Wolford Mtn Reservoir", 
        "Longitude": -106.415, 
        "Irrigation Type": "Dry land", 
        "First Obs.": null, 
        "gid": 118, 
        "Elev (ft)": 7520, 
        "Location": "5 mi NNW Kremmling", 
        "Station Type": "Coagmet", 
        "Latitude": 40.1387, 
        "ID": "WFD01", 
        "Last Obs.": null, 
        "__gid": null
      }
    }, 
    {
      "geometry": {
        "type": "Point", 
        "coordinates": [
          -104.036, 
          40.3333
        ]
      }, 
      "type": "Feature", 
      "properties": {
        "Station Name": "Wiggins 06", 
        "Longitude": -104.036, 
        "Irrigation Type": "Partial Irrigation", 
        "First Obs.": null, 
        "gid": 119, 
        "Elev (ft)": 4447, 
        "Location": "NNE of Wiggins", 
        "Station Type": "Coagmet", 
        "Latitude": 40.3333, 
        "ID": "WGG01", 
        "Last Obs.": null, 
        "__gid": null
      }
    }, 
    {
      "geometry": {
        "type": "Point", 
        "coordinates": [
          -103.952, 
          40.2998
        ]
      }, 
      "type": "Feature", 
      "properties": {
        "Station Name": "Wiggins 39", 
        "Longitude": -103.952, 
        "Irrigation Type": "Partial Irrigation", 
        "First Obs.": null, 
        "gid": 120, 
        "Elev (ft)": 4421, 
        "Location": "ENE of Wiggins", 
        "Station Type": "Coagmet", 
        "Latitude": 40.2998, 
        "ID": "WGG02", 
        "Last Obs.": null, 
        "__gid": null
      }
    }, 
    {
      "geometry": {
        "type": "Point", 
        "coordinates": [
          -102.294, 
          37.383
        ]
      }, 
      "type": "Feature", 
      "properties": {
        "Station Name": "Walsh", 
        "Longitude": -102.294, 
        "Irrigation Type": "Dry land", 
        "First Obs.": null, 
        "gid": 121, 
        "Elev (ft)": 3974, 
        "Location": "Plainsman Research Center in Walsh, CO", 
        "Station Type": "Coagmet", 
        "Latitude": 37.383, 
        "ID": "WLS01", 
        "Last Obs.": null, 
        "__gid": null
      }
    }, 
    {
      "geometry": {
        "type": "Point", 
        "coordinates": [
          -104.997, 
          40.6762
        ]
      }, 
      "type": "Feature", 
      "properties": {
        "Station Name": "Wellington", 
        "Longitude": -104.997, 
        "Irrigation Type": "Fully Irrigated", 
        "First Obs.": null, 
        "gid": 122, 
        "Elev (ft)": 5144, 
        "Location": "I25 & 58.5 Rd", 
        "Station Type": "Coagmet", 
        "Latitude": 40.6762, 
        "ID": "WLT01", 
        "Last Obs.": null, 
        "__gid": null
      }
    }, 
    {
      "geometry": {
        "type": "Point", 
        "coordinates": [
          -102.203, 
          40.1924
        ]
      }, 
      "type": "Feature", 
      "properties": {
        "Station Name": "Wray", 
        "Longitude": -102.203, 
        "Irrigation Type": "Fully Irrigated", 
        "First Obs.": null, 
        "gid": 123, 
        "Elev (ft)": 3681, 
        "Location": "10 mi N Wray", 
        "Station Type": "Coagmet", 
        "Latitude": 40.1924, 
        "ID": "WRY01", 
        "Last Obs.": null, 
        "__gid": null
      }
    }, 
    {
      "geometry": {
        "type": "Point", 
        "coordinates": [
          -102.265, 
          40.2187
        ]
      }, 
      "type": "Feature", 
      "properties": {
        "Station Name": "Wray 2", 
        "Longitude": -102.265, 
        "Irrigation Type": "Fully Irrigated", 
        "First Obs.": null, 
        "gid": 124, 
        "Elev (ft)": 3736, 
        "Location": "Lenz Farm north of Wray, CO", 
        "Station Type": "Coagmet", 
        "Latitude": 40.2187, 
        "ID": "WRY02", 
        "Last Obs.": null, 
        "__gid": null
      }
    }, 
    {
      "geometry": {
        "type": "Point", 
        "coordinates": [
          -108.724, 
          37.5289
        ]
      }, 
      "type": "Feature", 
      "properties": {
        "Station Name": "Yellow Jacket", 
        "Longitude": -108.724, 
        "Irrigation Type": "Fully Irrigated", 
        "First Obs.": null, 
        "gid": 125, 
        "Elev (ft)": 6900, 
        "Location": "2.5 mi NW Yellow Jacket", 
        "Station Type": "Coagmet", 
        "Latitude": 37.5289, 
        "ID": "YJK01", 
        "Last Obs.": null, 
        "__gid": null
      }
    }, 
    {
      "geometry": {
        "type": "Point", 
        "coordinates": [
          -108.687, 
          37.2478
        ]
      }, 
      "type": "Feature", 
      "properties": {
        "Station Name": "Yucca House", 
        "Longitude": -108.687, 
        "Irrigation Type": "Dry land", 
        "First Obs.": null, 
        "gid": 126, 
        "Elev (ft)": 5975, 
        "Location": "Mesa Verde Natl Monument", 
        "Station Type": "Coagmet", 
        "Latitude": 37.2478, 
        "ID": "YUC01", 
        "Last Obs.": null, 
        "__gid": null
      }
    }, 
    {
      "geometry": {
        "type": "Point", 
        "coordinates": [
          -102.606, 
          40.1035
        ]
      }, 
      "type": "Feature", 
      "properties": {
        "Station Name": "Yuma", 
        "Longitude": -102.606, 
        "Irrigation Type": "\u00a0", 
        "First Obs.": null, 
        "gid": 127, 
        "Elev (ft)": 4000, 
        "Location": "6 mi E of Yuma", 
        "Station Type": "Coagmet", 
        "Latitude": 40.1035, 
        "ID": "YUM01", 
        "Last Obs.": null, 
        "__gid": null
      }
    }, 
    {
      "geometry": {
        "type": "Point", 
        "coordinates": [
          -102.724, 
          40.1504
        ]
      }, 
      "type": "Feature", 
      "properties": {
        "Station Name": "Yuma", 
        "Longitude": -102.724, 
        "Irrigation Type": "Fully Irrigated", 
        "First Obs.": null, 
        "gid": 128, 
        "Elev (ft)": 4104, 
        "Location": "2 mi N Yuma", 
        "Station Type": "Coagmet", 
        "Latitude": 40.1504, 
        "ID": "YUM02", 
        "Last Obs.": null, 
        "__gid": null
      }
    }
  ], 
  "metadata": {
    "layer_model": {
      "layer_type": "point", 
      "label_on": false, 
      "class_mincolor": "#FF0000", 
      "label_background_color": null, 
      "class_mode": 0, 
      "postgis_ref": "merge_2018_7_30_4_32_9_63", 
      "visible": true, 
      "label_font": "", 
      "class_ndivs": null, 
      "modelingarea": 55555, 
      "label_border_color": null, 
      "class_maxcolor": "#0000FF", 
      "id": 798458, 
      "minscaledenom": null, 
      "hide_layer": false, 
      "label_outlinewidth": 1, 
      "label_minscaledenom": null, 
      "display_name": "Merge", 
      "opened": true, 
      "normalize_field": null, 
      "folder": null, 
      "selected_gids": "[]", 
      "opacity": 100, 
      "label_maxscaledenom": null, 
      "class_field_label": null, 
      "state_json": "", 
      "label_field": "", 
      "src_name": "api-intersection", 
      "symbols": [
        {
          "opacity": 100, 
          "mapserver_symbol_type": null, 
          "border_opacity": 100, 
          "color": "#FFFF00", 
          "border_color": null, 
          "border_size": 1, 
          "label": "SELECTION", 
          "sym_type": 0, 
          "hatch_size": 1, 
          "rangemin": null, 
          "icon_path": null, 
          "rangemax": null, 
          "expression": "[GID] IN \"\"", 
          "size": 10
        }, 
        {
          "opacity": 100, 
          "mapserver_symbol_type": null, 
          "border_opacity": 100, 
          "color": "#ff0000", 
          "border_color": "#000000", 
          "border_size": 1, 
          "label": "Merge", 
          "sym_type": 0, 
          "hatch_size": 1, 
          "rangemin": null, 
          "icon_path": null, 
          "rangemax": null, 
          "expression": "", 
          "size": 10
        }
      ], 
      "class_field": null, 
      "maxscaledenom": null, 
      "label_color": null, 
      "position": -11, 
      "label_size": 6, 
      "owner_ma_id": 0
    }
  }
}
